<svg xmlns="http://www.w3.org/2000/svg" width="320" height="355.096" viewBox="0 0 320 355.096">
  <g id="ws-image-background-bunga-5" transform="translate(-189.08 -601.994)" opacity="0.1">
    <g id="Group_3075" data-name="Group 3075" transform="translate(189.08 601.994)">
      <path id="Path_3631" data-name="Path 3631" d="M1620.24,2005.109a47.1,47.1,0,0,1,5.988,6.209c5.337-.554,5.813-.952,11.7,1.147,4.115,1.468,7.388.759,8.969.954a1.631,1.631,0,0,1,1.154.54,1.339,1.339,0,0,1,.248.865,9.4,9.4,0,0,0,1.12,3.137,14.6,14.6,0,0,1,1.063,9.3c-1.388,6.939-3.93,12.837-7.169,22.9-1.687,5.243-2.861,7.542-3.6,8.545a6.3,6.3,0,0,1,1.414,2.169c1.661,4.009,3.354,4.3,6.191,6.33,2.951,2.107,7.017,4.859,9.125,8.724a10.615,10.615,0,0,0,2.136,2.965c-.634-.9-1.287-1.875-1.943-2.922-4.1-6.55-5.236-6.989-6.895-16.073-1.656-9.066.684-15.083,1.9-21.448s.946-4.37,8.452-16.5a15.707,15.707,0,0,1,1.347-1.859,59.3,59.3,0,0,1-4.932-7.146c-3.463-6.927-5.319-9.061-6.118-16.637a5.028,5.028,0,0,1,1.1-3.969,6.826,6.826,0,0,1,3.9-2.045c4.915-1.021,13.216.705,22.892,5.607,10.475,5.307,19.488,17.333,24.471,25.041a71.04,71.04,0,0,1,1.907-13.742c1.12-4.583,1.694-10.389,3.585-15,1.3-3.163,3.212-5.767,6.287-7.1,3.912-1.688,5.251-1.508,6.8-.775a20.221,20.221,0,0,0,7.622,2.607c4.814.713,5.854,1.795,6.657,3.667a21.13,21.13,0,0,0,4.745,8.129c4.333,4.746,5.084,7.626,5.668,9.654a4.6,4.6,0,0,0,1.761,2.945c5.894,4.229,6.925,7.835,7.3,11.714.355,3.734.05,7.745,3.136,12.9,6.86,11.466,7.564,19.352,5.708,24.549a13.509,13.509,0,0,1-9.546,8.5q.213.37.407.737c2.354,4.454,2.787,8.686,3.393,13.419a58.08,58.08,0,0,1,5.477-5.084c7.673-6.308,17.408-17.012,33.777-15.478,6.633.622,10.6,2.9,13.028,5.578,3.628,4.013,3.792,8.976,4.164,10.829.2.986-.177,4.04-.669,7.669-.719,5.31-1.675,11.888-1.252,14.848a3.015,3.015,0,0,0,.285,1.02.4.4,0,0,0,.2.2.41.41,0,0,0,.3-.061.269.269,0,0,1,.052-.021s4.825-1.658,5.639-9.587c.512-4.989,4.876-19.323,11.406-26.87,2.685-3.1,5.743-5.059,9.029-4.868,2.2.126,4.51,1.208,6.893,3.591a31.632,31.632,0,0,0,7.911,6.008c2.512,1.5,3.453,2.732,5.941,13.43,4.05,17.413,2.564,12.284,6.209,22.408,1.866,5.185,1.513,7.6,1.158,9.646-.334,1.927-.675,3.5,1.059,6.965a26.455,26.455,0,0,1-.843,25.269c-5.025,8.238-10.809,10.916-15.694,8.263a38.4,38.4,0,0,0-4.348-1.769l.015.006v3.108a6.79,6.79,0,0,1-.664,3.229,3.558,3.558,0,0,1-.663,1.027l-.157-.263c.2.39.372.768.513,1.129a4.172,4.172,0,0,1,.372,2.63,2.125,2.125,0,0,1-1.975,1.272c-1.309.174-3.369,0-6.293.184-4.734.293-8.745,1.887-11.8,5.383-1.315,1.5-4.033,2.1-7.126,1.992-4.512-.16-9.814-1.78-12.462-3.881a16.032,16.032,0,0,1-5.338-8.211,10.264,10.264,0,0,1-.169-5.11c-.4,0-.806-.015-1.231-.049-5.674-.452-9.237-.94-11.7-1.685a95.461,95.461,0,0,1-8.476,7.64q-.72.592-1.379,1.123c1.969,2.9,5.289,7.791,7.684,11.384,3.572,5.357,1.74,3.02,4.419,5.613a8.562,8.562,0,0,0,3.287,2.3,5.248,5.248,0,0,1,1.144.627,9.158,9.158,0,0,0,2.633.882,23.083,23.083,0,0,1,7.384,3.126c2.414,1.594,4.142,4.673,5.472,7.719,1.286,2.948,2.2,5.855,3.053,7.222,1.712,2.742,6.584,7.02,9.367,10.189a2.308,2.308,0,0,0,1.2.79,3.079,3.079,0,0,0,2.144-.5c2.217-1.219,4.97-4.079,8.653-6.473,6.18-4.021,8.322-6.561,15.549-9.467a35.279,35.279,0,0,1,15.836-2.611,2.712,2.712,0,0,0,1.6-.238c.27-.187.277-.5.265-.846a15.5,15.5,0,0,1-.09-1.7c.106-1.717,2.311-6.751,9.473-8.5,7.027-1.712,16.366,1.714,20.308,5.656,2.784,2.784,6.646,10.316,3.657,16.6-1.281,2.692-3.815,5.168-8.251,6.931-14.655,5.829-23.18-.11-25.854-3.987a8.966,8.966,0,0,1-1.722-6.276c.018-.265.037-.494.035-.689a.838.838,0,0,0-.035-.3,1.078,1.078,0,0,0-.163-.067,3.081,3.081,0,0,0-.738-.071,49.383,49.383,0,0,0-6.34.836c-2.977.477-5.266.476-12.058,5.146-6.873,4.727-9.345,5.96-13.588,9.29a30.163,30.163,0,0,1-4.557,2.9,1.65,1.65,0,0,0-.708.6,1.256,1.256,0,0,0,.064.893c.658,2.132,2.65,4.594,6.925,14.824,4.253,10.172,8.9,20.025,17.405,25.278,8.6,5.309,22.6,13.938,24.914,16.045a5.637,5.637,0,0,0,2.33,1.567,6.451,6.451,0,0,0,2.384-.223c2.344-.413,4.17-1.171,7.684-1.723,3.567-.56,6.4-1.006,10.384-.062a19.9,19.9,0,0,1,7.656,4.2.709.709,0,0,0,.069.047c.052-.048.145-.134.222-.222.271-.3.677-.8,1.368-1.535,1.825-1.934,5.948-2.375,9.483.191a12.785,12.785,0,0,1,4.292,6.952,9.062,9.062,0,0,1-2.311,9.006,11.789,11.789,0,0,1-6.1,3.446c-2.933.518-5.73-.55-8.5-2.319a8.463,8.463,0,0,1-4.024-7.682,5.093,5.093,0,0,1,.682-2.421,12.05,12.05,0,0,1,1.263-1.538.507.507,0,0,0,.142-.216.375.375,0,0,0-.078-.221c-.424-.762-1.216-1.705-6.73-3.125-3.367-.867-6.611.091-9.3.992a18.72,18.72,0,0,1-4.755,1.251,1.536,1.536,0,0,0-.465.063.221.221,0,0,0-.167.32,2.386,2.386,0,0,0,.254.664c.763,1.472,2.769,3.706,3.952,5.74,1.969,3.381,7.225,13.271,12.79,18.321a24.379,24.379,0,0,0,8.479,4.513c4.874,1.655,10.023,2.513,12.846,3.3a64.679,64.679,0,0,0,8.552,2.09,2.994,2.994,0,0,0,1.7-.126,5.888,5.888,0,0,1,5.575-.69,4.3,4.3,0,0,1,2.747,2.433,3.354,3.354,0,0,1-.6,2.7,5.066,5.066,0,0,1-3.573,1.893,12.457,12.457,0,0,1-4.352-.087,3.634,3.634,0,0,1-1.2-.45,1.422,1.422,0,0,1-.745-1.344,2.483,2.483,0,0,1,.039-.314c.01-.052.021-.121.029-.175-.858-.151-1.216-.2-2.654-.351-.346-.036-.6-.079-.783-.108.006.06.012.125.02.19a1.76,1.76,0,0,0,.21.882,2.111,2.111,0,0,0,1.056.616,1.714,1.714,0,0,1,1.016,1.455,3.254,3.254,0,0,1-3.171,3.69c-3.476.186-4.621-2.764-4.187-4.192a5.458,5.458,0,0,0,.2-2.744c-.025-.15-.032-.288-.041-.415a.466.466,0,0,0-.059-.257.8.8,0,0,0-.4-.224,12.916,12.916,0,0,0-2.567-.445c-3.816-.415-14.41-3.609-16.262-4.106a5.429,5.429,0,0,1-.943-.338,17.208,17.208,0,0,1-1.934,1.2,4.622,4.622,0,0,0-1.984,3.246,9.921,9.921,0,0,0,.21,5.193l.033.007a.65.65,0,0,0,.133,0,2.993,2.993,0,0,0,.526-.129,12.3,12.3,0,0,1,1.675-.5,2,2,0,0,1,1.226.126,8.041,8.041,0,0,1,2.45,2.025,4.715,4.715,0,0,1,1.132,3.851,11.755,11.755,0,0,1-3.858,5.918c-1.374,1.1-2.924,1.638-4.341,1.064a11.356,11.356,0,0,1-6.594-6.344,4.473,4.473,0,0,1,.439-4.346,6.483,6.483,0,0,1,1.795-1.65c.072-.042.134-.079.186-.114a.513.513,0,0,0,.05-.037c-.011-.073-.064-.46-.183-.943-.53-2.161.316-5.147,2.336-9.363a10.5,10.5,0,0,1,.958-1.609,1.549,1.549,0,0,0,.341-.637.958.958,0,0,0-.123-.5,8.887,8.887,0,0,0-.667-1.114c-1.067-1.6-3.247-4.53-7.2-10.584-9.84-15.062-10.107-16.118-15.591-20.778s-9.823-6.042-17.757-11.193c-4.781-3.1-6.992-4.967-8.249-5.878a5.638,5.638,0,0,0-.771-.5.73.73,0,0,0-.581-.087,1.358,1.358,0,0,0-.384.259,10.451,10.451,0,0,0-1.031,1.058c-1.548,1.773-3.561,4.649-4.233,5.56a11.014,11.014,0,0,0-1.179,5.559,2.086,2.086,0,0,0,.658,1.579,1.317,1.317,0,0,0,1.062.131,13.917,13.917,0,0,1,7.518,1.2c2.709,1.147,5.2,2.991,6.32,5.309,2.207,4.589,1.106,11.562.092,13.857a9.845,9.845,0,0,1-3.776,4.715,10.13,10.13,0,0,1-6.037,1.268,16.9,16.9,0,0,1-12.691-6.882,15.335,15.335,0,0,1-1.286-13.178c1.207-3.292,2.738-4.024,3.665-4.39.167-.065.315-.117.434-.172a.906.906,0,0,0,.11-.062.568.568,0,0,0-.017-.077,16.994,16.994,0,0,1,.352-11.339,13.917,13.917,0,0,1,5.232-6.887,4.433,4.433,0,0,0,.6-.535c.076-.087.139-.159.136-.244a4.807,4.807,0,0,0-.772-1.636c-1.222-2.062-3.684-5.653-6.654-11.168-4.236-7.867-7.7-15.552-9.971-19.754-2.258-4.182-3.677-8.239-5.665-10.851a8.474,8.474,0,0,0-.928-1.088,1.171,1.171,0,0,0-.221-.169.189.189,0,0,0-.11-.042c-.04.006-.069.04-.105.076a1.957,1.957,0,0,0-.271.387c-.346.6-.754,1.584-1.415,2.921a3.768,3.768,0,0,1-1.35,1.395,13.51,13.51,0,0,1-3.517,1.491,51.545,51.545,0,0,1-12.011,1.687,11.277,11.277,0,0,1-2.9-.192,1.961,1.961,0,0,0-.7-.055c-.5.023-1.1.116-1.8.172-2.828.227-7.229-.081-12.587-7.428-3.049-4.183-4.055-7.395-4.055-9.936,0-3.822,2.281-6.16,3.5-8.061,1.937-3.011,2.065-4.773,2.273-8.178a6.155,6.155,0,0,1,1.576-4.249,2.328,2.328,0,0,0,.474-.647.488.488,0,0,0-.052-.4,5,5,0,0,0-.387-.655c-.733-1.1-2.271-3.12-4.909-7.545a44.879,44.879,0,0,0-4.533-6.6c-1.956,1.33-3.249,2.066-4.56,3.014-1.336.966-1.42,1.6-1.508,2.109a1.534,1.534,0,0,1-.849,1.266,3.229,3.229,0,0,1-1.554.364,6.211,6.211,0,0,1-2.38-.456,2.614,2.614,0,0,1-.727-.439,1.017,1.017,0,0,1-.3-.454.818.818,0,0,1,0-.515.782.782,0,0,1,.273-.359,2.106,2.106,0,0,0,1.137-1.661,9.733,9.733,0,0,0-.5-3.485,28.454,28.454,0,0,1-.966-9.656c.064-.693.146-1.347.241-1.969-.722-.64-5.54-4.9-6.654-5.493-1.205-.646-1.868-.119-2.48-.646-.552-.474-3.281-3.57-3.812-4.173a26.641,26.641,0,0,1-3.953,3.026,4.543,4.543,0,0,0-2.127,2.182,3.983,3.983,0,0,0-.05,1.494,1.175,1.175,0,0,1-.2.669,1.376,1.376,0,0,1-.673.484,6.525,6.525,0,0,1-1.677.32c-2.569.239-3.531-1.789-4.009-4-.258-1.193-.379-2.424-.609-3.265a2.33,2.33,0,0,0-.232-.593c-.047-.077-.093-.143-.163-.161-1.451-.387-2.875.681-3.167,3.969a14.129,14.129,0,0,1-.2,1.4c9.247,17.573,11.292,31.5,11.12,39.456a18.968,18.968,0,0,1-1.1,6.907c-.42.867-.7,1.475-.922,1.875a2.035,2.035,0,0,1-.527.663,1.026,1.026,0,0,1-1.151-.008c-.481-.231-1.207-.743-2.493-1.367a4.5,4.5,0,0,0-1.883-.356c-1.176-.023-2.569.159-4.1.274-3.974.3-8.857.164-13.408-4.714a80.3,80.3,0,0,0-6.241-5.62q-.6.579-1.228,1.164c-5.263,4.887-12.333,9.871-32.8,7.862-29.2-2.866-36.319-28.639-38.365-35.873a58.465,58.465,0,0,1-2.017-15.439,59.317,59.317,0,0,1-16.247,14.41v-.816a93.822,93.822,0,0,0,16.275-15q.027-.891.091-1.795l.026-.365.014-.159.024-.289.024-.278c.084-.907.2-1.816.338-2.726.194-1.236.445-2.472.762-3.695q-.5-.39-.974-.777l-.128-.1-.209-.173-.206-.174-.2-.172-.2-.172-.2-.172-.193-.172-.192-.172-.187-.171-.186-.171-.183-.171-.178-.171-.178-.17-.227-.223-.2-.2-.216-.219-.2-.2-.206-.215-.207-.224-.178-.195-.149-.167-.148-.166-.145-.166-.143-.166-.14-.167-.137-.166-.135-.167-.133-.166-.131-.166-.128-.165-.126-.166-.124-.165-.122-.164-.119-.166-.117-.165-.114-.164-.113-.165-.111-.165-.108-.164-.107-.164-.105-.164-.1-.165-.1-.164-.1-.164-.1-.165-.088-.152a20.924,20.924,0,0,1-1.239-2.555l-.067-.172-.065-.167-.064-.167-.061-.167-.088-.25-.087-.249-.081-.25-.079-.249-.076-.25-.072-.248-.07-.248-.082-.313-.067-.269-.075-.314-.068-.3-.07-.332-.065-.332-.062-.334-.06-.333-.053-.335-.052-.337-.047-.336-.046-.337-.041-.338-.04-.34-.035-.341-.035-.341-.03-.342-.023-.269-.027-.335-.026-.348-.024-.348-.023-.349-.023-.351-.015-.265,0-.158v-.031a10.811,10.811,0,0,1,1.17-4.653l.124-.261.021-.043q.08-.164.164-.329a26.717,26.717,0,0,1,2.063-3.329l.183-.254.026-.034a45.244,45.244,0,0,1,3.1-3.754q.574-.628,1.176-1.251c-.135-.091-.274-.183-.411-.272-.644.441-1.342.882-2.083,1.312l-.069.038c-.591.343-1.211.678-1.851,1a39.536,39.536,0,0,1-6.433,2.581l-.085.026a30.689,30.689,0,0,1-3.515.829v-.831a29.442,29.442,0,0,0,3.2-.755l.05-.015a38.594,38.594,0,0,0,6.417-2.566c.761-.384,1.489-.785,2.178-1.193s1.35-.833,1.952-1.255l.02-.014a18.057,18.057,0,0,0,2.621-2.187,6.508,6.508,0,0,0,1.045-1.365,1.744,1.744,0,0,0,.265-1c-.324-2.77-.9-4.836-1-6.317a2.841,2.841,0,0,1,.811-2.543.753.753,0,0,1,.966-.055,2.39,2.39,0,0,1,.611.747c.776,1.3,1.826,4.21,4.067,6.209,3.45-2.543,6.657-4.377,8.717-4.954l.178-.048.2-.055a39.843,39.843,0,0,1,6.006-1.071,12.406,12.406,0,0,1,1.208-2.367c.888-1.149,1.326-1.732,1.537-2.026q-.391-.5-.813-1.053c-.2-.225-.425-.464-.663-.7a3.836,3.836,0,0,0-.824-.588c-.782-.471-1.743-1.084-3.262-3.868-2.048-3.753-6.016-6.4-8.882-8.451-2.98-2.128-4.728-2.47-6.471-6.681a4.987,4.987,0,0,0-1.691-2.273l-.033-.023a3.316,3.316,0,0,0-4.018.3l-.078.07-.075.073-.073.076-.041.046a17.554,17.554,0,0,0-1.9,3.1,1.72,1.72,0,0,1-.416.491.666.666,0,0,1-.39.134.626.626,0,0,1-.108-.009l-.029,0a2.9,2.9,0,0,1-1.845-1.318,7.566,7.566,0,0,1-.576-.992c-.085-.172-.167-.351-.248-.535-.111-.251-.218-.515-.321-.784-.187-.479-.367-.979-.55-1.48a18.674,18.674,0,0,0-1.4-3.2c-.1-.17-.21-.332-.323-.486-.074-.1-.152-.2-.233-.288l-.076-.087-.062-.065-.061-.062-.062-.061-.064-.058-.082-.071-.091-.073-.087-.064-.1-.065-.064-.041-.067-.04-.069-.037-.067-.035-.068-.032-.069-.03-.069-.026-.073-.026-.073-.024-.086-.023-.024-.006c-.1-.026-.21-.049-.322-.069l-.056-.009-.174-.026-.1-.012-.107-.011-.117-.009-.177-.011-.1,0-.026,0h-.04l-.085,0h-.183l-.038,0a.128.128,0,0,1-.027,0l-.051,0h-.082l-.167.007h-.029l-.05,0-.087.006-.2.016-.053.006-.1.009-.2.023-.05.006-.03,0-.061.009-.085.012-.133.02-.151.025-.149.026-.134.026-.161.032-.149.032-.19.044-.125.029-.137.035-.061.015-.04.011-.026.008-.076.02-.034.009-.024.008h0v-.849l.119-.031.163-.04.172-.04.143-.032.1-.021.157-.032.143-.027.143-.026.1-.017.143-.023.143-.021.07-.011h.032l.034-.006.1-.014.14-.016.07-.007.087-.009.215-.017.136-.009h.032l.058,0,.139,0,.133,0h.413a.177.177,0,0,1,.029,0h.053l.131.006.124.008a.174.174,0,0,1,.029,0l.044,0,.132.012.12.012.059.008.075.011.12.017.116.02.081.015.11.023.116.026.16.043.157.05.055.02a3.378,3.378,0,0,1,.961.556l.085.072.092.081.043.041a24.8,24.8,0,0,0,4.432-6.5c3.744-8.959,2.535-21.126-1.342-29.015l-.087-.174-.085-.169-.042-.079a33.967,33.967,0,0,0-3.471-5.277.262.262,0,0,1-.029-.043,46.022,46.022,0,0,0-5.461-5.779Zm158.484,160.075c-.85.675-1.62,1.269-2.325,1.8l-.315.238-.311.23-.247.181-.209.152c-.477.349-.92.665-1.335.954a46.628,46.628,0,0,1,4.557,6.643c3.075,5.158,4.652,7.042,5.2,8.019a1.385,1.385,0,0,1,.206,1.29,3.139,3.139,0,0,1-.621.894,5.464,5.464,0,0,0-1.375,3.76c-.219,3.57-.372,5.413-2.4,8.571-1.158,1.8-3.372,3.995-3.374,7.617,0,2.423.993,5.469,3.9,9.453s5.5,5.819,7.7,6.6a10.8,10.8,0,0,0,5.229.384,4.431,4.431,0,0,1,1.751.03,10.538,10.538,0,0,0,2.624.15,50.6,50.6,0,0,0,11.8-1.653,12.665,12.665,0,0,0,3.3-1.39,2.941,2.941,0,0,0,1.066-1.072c.792-1.6,1.236-2.714,1.632-3.269a1.2,1.2,0,0,1,.769-.562,1.074,1.074,0,0,1,.826.262,7.4,7.4,0,0,1,1.21,1.35c2.008,2.637,3.453,6.731,5.734,10.957,2.269,4.2,5.735,11.887,9.972,19.756,2.96,5.5,5.418,9.081,6.637,11.135a5.418,5.418,0,0,1,.885,2.031,1.067,1.067,0,0,1-.225.667,4.424,4.424,0,0,1-.817.777,13.163,13.163,0,0,0-4.972,6.521,16.232,16.232,0,0,0-.337,10.83.923.923,0,0,1,0,.626,1.033,1.033,0,0,1-.614.526c-.734.308-2.342.653-3.591,4.063a14.487,14.487,0,0,0,1.193,12.437,16.076,16.076,0,0,0,12.063,6.526,9.358,9.358,0,0,0,5.563-1.152,9.013,9.013,0,0,0,3.451-4.346c.965-2.182,2.016-8.809-.081-13.171-1.037-2.156-3.383-3.843-5.9-4.911a13.063,13.063,0,0,0-7.03-1.148,2.1,2.1,0,0,1-1.7-.261,2.881,2.881,0,0,1-1-2.176,12.065,12.065,0,0,1,1.335-6.119c.678-.92,2.714-3.823,4.276-5.612a5.744,5.744,0,0,1,1.781-1.557,1.674,1.674,0,0,1,1.5.3c1.146.7,3.224,2.631,8.8,6.249,7.972,5.177,12.319,6.563,17.841,11.255s5.817,5.758,15.746,20.954c3.953,6.051,6.133,8.979,7.2,10.578a3.92,3.92,0,0,1,.929,2.077,1.746,1.746,0,0,1-.349.89,11.354,11.354,0,0,0-1.033,1.7c-1.906,3.977-2.781,6.774-2.279,8.815a8.356,8.356,0,0,1,.2.943.988.988,0,0,1-.059.533.885.885,0,0,1-.328.368,5.825,5.825,0,0,0-1.82,1.609,3.677,3.677,0,0,0-.3,3.563,10.529,10.529,0,0,0,6.128,5.853c1.155.468,2.4-.048,3.521-.944a10.827,10.827,0,0,0,3.565-5.431,3.912,3.912,0,0,0-.966-3.185,7.2,7.2,0,0,0-2.177-1.807,1.7,1.7,0,0,0-1.182.056c-.545.155-1.1.387-1.531.484-.593.134-1.025.009-1.234-.384a10.806,10.806,0,0,1-.291-5.752,5.433,5.433,0,0,1,2.388-3.792,18.154,18.154,0,0,0,1.9-1.193.651.651,0,0,1,.486-.137.931.931,0,0,1,.263.088,4.355,4.355,0,0,0,.833.3c1.837.494,12.351,3.671,16.137,4.083a13.734,13.734,0,0,1,2.749.485,1.537,1.537,0,0,1,.792.518,1.064,1.064,0,0,1,.188.469c.027.162.023.343.058.552a6.2,6.2,0,0,1-.23,3.114,1.969,1.969,0,0,0,.061,1.137,3.05,3.05,0,0,0,3.3,2,2.447,2.447,0,0,0,2.418-2.276,1.9,1.9,0,0,0-.12-.876.694.694,0,0,0-.376-.4,2.825,2.825,0,0,1-1.448-.914,2.527,2.527,0,0,1-.358-1.275c-.026-.278-.056-.46-.055-.572a.574.574,0,0,1,.088-.317.514.514,0,0,1,.485-.235c.174,0,.514.08,1.15.149,1.478.161,1.837.2,2.727.361a.833.833,0,0,1,.5.243.666.666,0,0,1,.173.481,3.4,3.4,0,0,1-.064.458.734.734,0,0,0,.007.371.854.854,0,0,0,.361.407,3.859,3.859,0,0,0,1.395.416,11.935,11.935,0,0,0,3.567-.012,4.254,4.254,0,0,0,3.009-1.515,2.593,2.593,0,0,0,.5-2.046c-.24-.864-1.153-1.427-2.276-1.9a5.086,5.086,0,0,0-4.824.632,3.763,3.763,0,0,1-2.216.244,65.575,65.575,0,0,1-8.688-2.115c-2.834-.795-8-1.658-12.889-3.318a25.209,25.209,0,0,1-8.768-4.683c-5.625-5.105-10.955-15.1-12.945-18.516-.826-1.417-2.051-2.931-2.973-4.214a8.111,8.111,0,0,1-1.3-2.321,1.11,1.11,0,0,1,.207-1.083,1.6,1.6,0,0,1,1.19-.4,17.881,17.881,0,0,0,4.509-1.208c2.825-.944,6.233-1.916,9.767-1.007,5.983,1.54,6.783,2.694,7.24,3.518a1.236,1.236,0,0,1,.183.6.958.958,0,0,1-.175.56,20.919,20.919,0,0,0-1.368,1.673,4.288,4.288,0,0,0-.547,2.018,7.655,7.655,0,0,0,3.648,6.94c2.585,1.652,5.183,2.688,7.918,2.2a11.006,11.006,0,0,0,5.669-3.229,8.271,8.271,0,0,0,2.086-8.223,11.925,11.925,0,0,0-3.979-6.482c-3.134-2.276-6.788-2.007-8.406-.293-1.066,1.133-1.475,1.706-1.748,1.9a.714.714,0,0,1-.439.145.981.981,0,0,1-.561-.239,19,19,0,0,0-7.353-4.061c-3.864-.914-6.61-.466-10.067.077-3.509.55-5.331,1.307-7.67,1.719a7.135,7.135,0,0,1-2.7.216,6.3,6.3,0,0,1-2.706-1.763c-2.3-2.093-16.241-10.672-24.793-15.953-8.643-5.337-13.409-15.321-17.73-25.659-4.3-10.279-6.29-12.755-6.952-14.9a2.049,2.049,0,0,1-.044-1.432,1.7,1.7,0,0,1,.555-.677,46.779,46.779,0,0,0,4.969-3.165c4.255-3.342,6.734-4.582,13.631-9.322,6.979-4.8,9.333-4.789,12.392-5.28a50.825,50.825,0,0,1,6.476-.847,3.38,3.38,0,0,1,1.1.149.9.9,0,0,1,.527.441,3.229,3.229,0,0,1,.085,1.414,8.218,8.218,0,0,0,1.578,5.757c2.571,3.727,10.788,9.294,24.877,3.692,4.189-1.665,6.6-3.98,7.812-6.523,2.825-5.935-.867-13.04-3.5-15.67-3.791-3.791-12.776-7.086-19.534-5.437-6.622,1.615-8.75,6.166-8.851,7.754-.043.691.12,1.385.09,1.946a1.473,1.473,0,0,1-.614,1.219,3.454,3.454,0,0,1-2.106.386,34.466,34.466,0,0,0-15.493,2.552c-7.164,2.88-9.282,5.408-15.409,9.393-3.7,2.409-6.476,5.279-8.705,6.5a3.859,3.859,0,0,1-2.724.579,3.1,3.1,0,0,1-1.626-1.045c-2.81-3.2-7.717-7.529-9.447-10.3-.867-1.389-1.8-4.335-3.11-7.329-1.265-2.9-2.877-5.848-5.171-7.364a24.19,24.19,0,0,0-8.025-3.247,6.423,6.423,0,0,1-2.019-.78,5.508,5.508,0,0,0-1.309-.67,9.6,9.6,0,0,1-3.213-2.338c-2.745-2.655-.873-.259-4.532-5.747C1783.988,2172.939,1780.7,2168.084,1778.724,2165.184Zm53.117,123.078c2.813,2.225,4.656,7.233,6.9,8.533s5.146,3.518,6.5,4.09,3.815,1.738,1.711,1.1-1.472.189-4.425-1.343-6.1-3.457-7.1-5.784S1829.029,2286.037,1831.841,2288.262Zm79.523,1.123c2.8,1.969,3.479,5.021,5.255,6.064s2.8,2.836,0,1.259S1908.566,2287.417,1911.365,2289.385Zm-116.6-97.4c13.053,0,13.079,6.471,14.42,8.226s-1.492-.015-8.085-2.123-11.149.063-12.937-1.761S1789.088,2191.984,1794.76,2191.984Zm-78.917-6.881a29.441,29.441,0,0,0-4.35,3.622,79.644,79.644,0,0,1,6.244,5.628c4.324,4.633,8.973,4.738,12.749,4.457,1.563-.117,2.983-.3,4.181-.277a5.353,5.353,0,0,1,2.226.439c1.082.524,1.769.969,2.251,1.239a1.207,1.207,0,0,0,.521.221c.038,0,.062-.032.1-.07a1.757,1.757,0,0,0,.206-.3c.224-.389.5-.995.923-1.875a18.215,18.215,0,0,0,1.015-6.567c.167-7.749-1.805-21.21-10.585-38.207a25.009,25.009,0,0,1-1.7,4.464l-.035.072c-.055.109-.1.2-.135.265h0a56.7,56.7,0,0,1-6.256,18.434c-2.072,3.7-4.484,6.706-6.981,8.22l-.119.073-.166.105Zm166.6,7.143c5.574-.882,11.592,1.012,15.71,3.454s4.047,4.179.023,2.09-4.471-1.38-9.7-3.146S1881,2192.477,1882.443,2192.246Zm-164.28-52.127-.113-.077-.149-.1c-.161-.115-.321-.23-.481-.349l-.139-.1-.073-.056c-.058-.044-.116-.088-.174-.134l-.073-.056-.087-.067-.149-.121c-.206-.167-.411-.34-.615-.519l-.078-.069-.137-.124-.046-.042-.108-.1c-.3-.28-.593-.573-.879-.884l-.094-.1-.067-.074-.12-.136-.091-.106-.062-.071-.066-.08s-.007-.007-.006-.007l-.115-.137-.061-.074q-.391-.486-.762-1.027l-.125-.187-.1-.158-.09-.142-.047-.076c-.131-.21-.257-.425-.383-.646l-.077-.143-.1-.178c-.093-.174-.184-.345-.273-.513l-.136-.259-.116-.223-.032-.062q-.345-.675-.633-1.28l-.093-.2-.073-.157-.084-.183-.04-.086-.078-.175-.027-.063c-.142-.32-.27-.626-.385-.916l-.015-.037-.018-.047q-.235-.6-.4-1.117l-.036-.114c-.066-.208-.125-.409-.175-.6l-.031-.117a6.313,6.313,0,0,1-.221-2.56l.031-.161.024-.11.037-.137.032-.1a3.149,3.149,0,0,1,.124-.322,3.214,3.214,0,0,1,.219-.406l.023-.035c.049-.078.1-.151.154-.223.166-.222.343-.415.5-.606l.072-.095a4.682,4.682,0,0,0,.864-1.548,1.537,1.537,0,0,0,.041-.195.422.422,0,0,1,.038-.119l.018-.031a.414.414,0,0,1,.137-.137.05.05,0,0,0,.014-.008.424.424,0,0,1,.095-.037l.033-.007.045-.006h.158c.04,0,.079,0,.119,0a40.614,40.614,0,0,1,3.482-4.443c-.59-.542-1.207-1.1-1.777-1.653l-.042-.042c-.337-.329-.655-.659-.942-.988l-.079-.091c-.049-.055-.1-.111-.142-.167a5.017,5.017,0,0,1-1.134-2.086l-.015-.091-.014-.1c-.017-.136-.025-.262-.028-.381v-.032a2.529,2.529,0,0,1,.015-.312,1.648,1.648,0,0,1,.038-.224,1.4,1.4,0,0,1,.069-.218c.009-.021.018-.043.028-.062a1.039,1.039,0,0,1,.082-.145.953.953,0,0,1,.14-.17l.046-.043.015-.012a1.023,1.023,0,0,1,.1-.074l.067-.042c.046-.024.093-.047.145-.069l.09-.033a1.973,1.973,0,0,1,.32-.079l.125-.018.031,0c.038,0,.079-.008.12-.011l.094-.006.1,0c.033,0,.068,0,.1,0h.084c.078,0,.16,0,.244.009l.055,0c.088.006.18.014.276.023.146.012.3.031.468.05l.178.023.125.017.112.015c.573.079,1.247.186,2.033.3.9.139,1.957.293,3.176.444.149.018.3.038.454.055,1.67.2,3.634.384,5.938.5l.172.009.267.014.431.02.224.011.223.011.218.011.215.011.281.015.331.018.21.013.21.014.357.022.382.028.125.009a41.9,41.9,0,0,1,6.145.827l.145.034c.222.054.434.107.635.162,2.062-.032,4.337-.047,6.856-.047a5.229,5.229,0,0,0,2.915-1.025,16.285,16.285,0,0,0,4.213-4.708l-.119-.631-.122-.666-.077-.434-.078-.433-.084-.473c-.024-.129-.045-.257-.069-.387-.027-.149-.053-.3-.079-.446l-.029-.168-.027-.169-.035-.238-.015-.111c-.907-6.757,2.365-12.935,7.058-18.171-.017-.191-.037-.376-.061-.561-.6-4.684-1-8.87-3.32-13.27q-.308-.582-.666-1.175l0-.006c-2.164-3.577-5.7-7.332-11.7-11.646l-.168-.12-.162-.116-.158-.111-.161-.116-.169-.118-.171-.119-.169-.119-.168-.116-.163-.112-.169-.116-.178-.122-.177-.121-.177-.119-.172-.117-.164-.11c-16.653-11.146-18.438-12.243-28.08-12.511-3.724-.1-7.909-.348-12-.357h-.149c-2.241,0-4.451.07-6.537.276-3.882.384-7.33,1.228-9.715,2.977-6.013,4.408-19.016,10.927-16.746,28.293,2.283,17.454,16.654,31.815,22.024,35.842,2.9,2.179,2.819,5.515,1.112,8.127a8.393,8.393,0,0,1-6.794,3.849h-.038a7.286,7.286,0,0,1-1.507-.156c-3.24-.675-9.145-3.1-15.709-3.91a33.356,33.356,0,0,0-4-.26h-.078a20.866,20.866,0,0,0-15.28,5.962l-.166.164-.134.137-.107.11-.131.137-.16.168-.2.221-.111.125c-.043.047-.085.094-.127.141l-.126.143-.064.077-.142.165s-.035.041-.034.041l-.076.09-.178.215-.04.05-.082.1-.09.112-.029.037s-.07.09-.07.089l-.062.08-.038.049-.156.2-.012.017s-.066.085-.064.085l-.073.1-.1.137-.026.035-.035.049s-.16.226-.16.224l-.014.018s-.084.122-.084.121-.041.061-.04.058l-.01.015s-.1.148-.1.145l-.062.091-.046.067-.148.226s-.041.061-.039.061l-.06.091s-.087.136-.087.134-.027.043-.026.043l-.064.1-.148.239s-.037.059-.035.058-.062.1-.061.1-.07.117-.07.115-.026.043-.024.042-.056.1-.056.094l-.052.091s-.032.055-.032.054l-.138.242-.02.037-.084.148-.065.121s-.047.087-.047.086-.032.059-.031.058l-.122.228a.092.092,0,0,0-.006.012l-.1.189s-.087.169-.085.168-.024.047-.022.046l-.055.108-.1.2-.1.2-.072.151-.046.1-.037.077s-.111.242-.11.241-.032.068-.031.068-.043.095-.043.093-.064.143-.062.142l-.018.042-.05.115s-.11.256-.11.254-.02.047-.018.046-.093.226-.093.224-.018.043-.017.041l-.082.2s-.02.049-.02.047-.1.257-.1.256-.007.021-.007.02l-.035.091s-.044.117-.044.116-.009.026-.009.024-.06.161-.058.159-.085.231-.085.229-.015.04-.014.037l-.094.266-.092.265-.029.085-.078.232-.076.236-.053.167-.052.169-.05.165-.058.191s-.041.14-.041.138a.288.288,0,0,0-.008.029s-.041.139-.04.136l-.009.032s-.038.135-.038.134l-.009.032s-.036.136-.036.134l-.009.03s-.037.138-.037.136l-.008.031q-.391,1.452-.66,2.921l-.041.232-.04.225-.05.3-.04.244-.032.21-.033.226-.012.078a46.051,46.051,0,0,0-.44,5.151h0a57.532,57.532,0,0,0,1.964,16.47c2.011,7.1,8.966,32.464,37.657,35.28,20.061,1.968,27-2.857,32.162-7.648.5-.466.989-.933,1.467-1.39l.018-.018a31.851,31.851,0,0,1,4.9-4.1l.2-.126.09-.055c2.4-1.457,4.7-4.359,6.692-7.921h0a55.8,55.8,0,0,0,6.16-18.147l.038-.277.035-.262.031-.251.026-.22.028-.241.021-.211.024-.239.018-.2.017-.19.018-.236.02-.283.017-.281.012-.231.01-.265.008-.262.006-.258v-.541l0-.233,0-.169-.008-.237-.009-.216-.009-.159-.014-.21-.012-.163-.015-.177-.017-.171-.018-.178-.014-.106-.02-.159-.026-.181-.023-.148-.029-.178-.033-.182-.037-.18-.041-.189-.037-.155-.047-.185-.049-.173-.049-.162-.047-.151-.049-.146-.049-.138-.047-.133-.056-.151-.053-.137a10.459,10.459,0,0,0-1.25-2.278l-.1-.136-.033-.044-.116-.149-.1-.125-.07-.086-.095-.111-.064-.075c-.035-.042-.072-.081-.108-.122l-.055-.06-.112-.12-.1-.1-.117-.119-.125-.124-.06-.059-.061-.058-.113-.1-.11-.1-.126-.113-.064-.056q-.288-.252-.588-.488l-.14-.108-.136-.1-.135-.1c-.162-.12-.325-.236-.491-.351l-.148-.1-.143-.1-.143-.1-.264-.174-.02-.01-.007-.006-.034-.023-.072-.043-.018-.013-.169-.106-.145-.091-.146-.091-.146-.09-.195-.12-.311-.189-.294-.177-.317-.188-.294-.177c-.267-.16-.536-.32-.806-.484l-.122-.075c-.309-.189-.62-.383-.928-.581l-.166-.108-.242-.158-.169-.113-.154-.1-.076-.053h0Zm53.014,2.458c-.727-.378-1.463-.786-2.2-1.239a19.893,19.893,0,0,0-2.342,4c-1.757,4.118-3.852,7.192-4.457,13.673a27.662,27.662,0,0,0,.948,9.389,10.5,10.5,0,0,1,.509,3.838,2.756,2.756,0,0,1-1.114,1.929c-.072.05-.139.093-.2.133-.035.022-.082.056-.113.079l0,.006c.023.076.122.128.234.2a3.236,3.236,0,0,0,.751.32,3.936,3.936,0,0,0,2.776-.015c.5-.288.427-.608.512-1.012a3.676,3.676,0,0,1,1.778-2.32c1.376-.993,2.73-1.754,4.856-3.215a.043.043,0,0,1,.015-.011c.983-.677,2.13-1.5,3.523-2.571l.283-.218.19-.147.317-.249.292-.229.3-.233.2-.161.219-.173.1-.078c.527-.42,1.082-.872,1.67-1.356a100.04,100.04,0,0,0,8.135-7.291,9.529,9.529,0,0,1-3.469-2.115l-.037-.035a30.693,30.693,0,0,1-3.326-4.257l-.178-.25-.085-.118-.107-.14-.067-.085a14.318,14.318,0,0,0-5.135-3.736q-.5-.247-1.013-.49l-.622-.295c-.993-.467-2.023-.947-3.069-1.488Zm31.836,15.035a9.2,9.2,0,0,0,.1,4.932,15.183,15.183,0,0,0,5.054,7.779c2.545,2.017,7.647,3.55,11.982,3.7,2.8.1,5.291-.352,6.482-1.712,3.207-3.668,7.405-5.356,12.369-5.661,2.9-.179,4.937-.008,6.235-.18.683-.091,1.129-.259,1.317-.751a1.288,1.288,0,0,0,.038-.549,5.836,5.836,0,0,0-.405-1.49c-.9-2.283-3.095-5.413-5.619-6.624a4.373,4.373,0,0,0-1.033-.377.758.758,0,0,0-.449.015.475.475,0,0,0-.207.23,2.785,2.785,0,0,0-.2.589c-.28,1.125-.512,2.732-2.2,3.774-.229.141-.364.249-.383.382-.014.113.075.211.171.319a6.962,6.962,0,0,0,.916.767,4.194,4.194,0,0,1,.785.727,1.055,1.055,0,0,1,.238.7c-.023.332-.261.727-.992,1.069a24.075,24.075,0,0,1-5.891,1.313c-4.6.652-8.432-1.318-11.478-4.224-3.968-3.783-6.593-9.149-7.857-12.174a15.516,15.516,0,0,1-.914,2.119l-.02.037A9.365,9.365,0,0,1,1803.013,2157.611Zm-108.927-27.406c4.14.014-.8,6.95-2.68,10.69s-3.645,3.878-4.563,11.928.4,12.935-2.887,15.915-1.737.91-.673-1.586a48.061,48.061,0,0,0,2.642-10.513c.661-4.212-.771-2.452.661-6.959s3.2-6.764,4.477-9.4S1692.89,2130.2,1694.086,2130.206Zm153.052,24.65c-1.114-.423-2.3-.9-3.521-1.482a24.1,24.1,0,0,1-13.8-16.372c-1.152-4.242-3.067-6.954-5.229-8.536a8.955,8.955,0,0,0-9.336-.91c-1.655.861-2.74,2.235-2.557,3.707.382,3.06,1.45,11.262-.316,17.676,1.039,2.656,3.723,8.7,8.039,12.814,2.869,2.736,6.467,4.621,10.8,4.006a28.16,28.16,0,0,0,5.319-1.1,3.106,3.106,0,0,0,.654-.314.557.557,0,0,0,.2-.19c.021-.043-.009-.083-.037-.127a1.368,1.368,0,0,0-.236-.267c-.31-.287-.741-.576-1.089-.872a2.578,2.578,0,0,1-.6-.681,1.039,1.039,0,0,1-.132-.637,1.4,1.4,0,0,1,.763-.974,4.473,4.473,0,0,0,1.833-3.275,1.869,1.869,0,0,1,.855-1.364c.413-.193,1.077-.165,2.182.365a13.393,13.393,0,0,1,5.19,5.334,15.3,15.3,0,0,0,.7-1.416,11.431,11.431,0,0,0,.463-2.768c-.018-.832-.145-2.617-.145-2.617Zm-33.846-26.915a6.9,6.9,0,0,1,1.578-1.112,9.774,9.774,0,0,1,10.2.977c2.28,1.666,4.323,4.51,5.537,8.98,2.914,10.719,10.2,14.67,15.9,16.948,2.5,1,4.705,1.684,6.136,2.459,4.583,2.488,9.892-.242,14.606-7.97a25.626,25.626,0,0,0,.808-24.477c-1.859-3.717-1.492-5.4-1.134-7.47.34-1.954.664-4.268-1.121-9.229-3.66-10.165-2.17-5.015-6.237-22.5a80.49,80.49,0,0,0-2.354-8.687c-.96-2.622-1.805-3.386-3.209-4.225a32.288,32.288,0,0,1-8.07-6.131c-2.2-2.2-4.33-3.235-6.362-3.353-3.056-.178-5.866,1.7-8.362,4.585-6.421,7.42-10.708,21.514-11.211,26.419-.841,8.194-5.753,10.122-6.168,10.27a1.172,1.172,0,0,1-.884.1,1.157,1.157,0,0,1-.629-.527,3.673,3.673,0,0,1-.414-1.361c-.428-3,.521-9.685,1.252-15.074.474-3.5.865-6.447.675-7.4-.356-1.783-.474-6.575-3.968-10.44-2.324-2.57-6.142-4.715-12.5-5.312-16.1-1.508-25.636,9.092-33.181,15.3a56.732,56.732,0,0,0-5.967,5.612.323.323,0,0,1-.038.05c-4.667,5.165-7.965,11.271-6.924,17.977l.026.169.028.152q.318,1.819.655,3.617v.006c1.571,8.3,3.706,16.465,9.439,26.168a22.973,22.973,0,0,0,7.678,7.979l.013.007c.974.619,1.949,1.152,2.909,1.638l.178.089c.846.423,1.678.81,2.484,1.191l.578.273c.364.172.722.346,1.074.52a15.06,15.06,0,0,1,5.446,4h0l.124.161.093.126.186.262.11.154a26.808,26.808,0,0,0,3.247,4.123,9.278,9.278,0,0,0,3.693,2.069.351.351,0,0,1,.064.026c2.409.765,5.938,1.237,11.708,1.7,5.225.416,8.17-2.1,9.773-5.715.189-.425.36-.867.512-1.32h0c.1-.291.19-.588.276-.89,0,0,0-.01,0-.017,1.782-6.308.7-14.446.323-17.469a3.836,3.836,0,0,1,.942-2.916h0l-.107-.154a7.9,7.9,0,0,1-.4-5.429c.879-2.959.439-4.774,0-8.563s.446-4.085,5.66-6.209,5.05-6.875,8.443-3.438,5.42,7.006,5.42,9.222,1.352,3.31-2.712,3.82-6.329.538-5.321,2.854,1.35.061,6.782,3.424,10.047,5.229,10.332,10.233-2.715,10.4-4.391,10.946-1.939.328-1.959-.2.945-.416,1.452-.559a4.63,4.63,0,0,0,1.862-1.788,15.958,15.958,0,0,0,2.021-5.012c.347-1.8.647-4.041-.29-5.68a11.507,11.507,0,0,0-6.073-5.383c-3.665-1.511-3.145-2.283-5.842-3.057s-4.306-1.333-4.509-2.528-.945-2.521,1.141-2.979,7.4-.457,6.831-2.063.483-2.3-.275-3.851a26.032,26.032,0,0,0-3.347-4.777c-.908-1-1.865-2.817-3.209-2.68s-1.484,2.3-3.919,3.491-5.973,1.837-6.448,2.749-1.269,1.853-1.019,3.46a37.412,37.412,0,0,1,.6,4.617c0,1.173.291,2.816-.389,4.177s-.923,1.551-.442,2.727a8.394,8.394,0,0,1,.578,2.119Zm-54.164,2.15-2.363,2.4c-.888.9-2.019,1.949-2.552,2.437.143,4.311-1.914,8.042-4.8,10.991a17.732,17.732,0,0,0,1.988,2.442c1.071,1.019,1.158,2.019,2.354,2.241s1.166-.128,2.517.869c1.156.852,4.512,3.882,5.459,4.743a27.85,27.85,0,0,1,1.9-6.226c-1.482-1.207-6-4.867-7.126-5.5-1.352-.765-2.372-1.351-2.805-2.245s2.473-2.218,3.7-3.543c1.048-1.138,3.673-3.476,4.4-4.119q-.56-.8-1.094-1.705Q1759.866,2131.461,1759.128,2130.091ZM1713.4,2110.2a2.385,2.385,0,0,0-.428.032.606.606,0,0,0-.315.125.408.408,0,0,0-.115.241,2.13,2.13,0,0,0,0,.63l0,.031a3.927,3.927,0,0,0,.978,1.818c.128.156.264.311.405.466l.152.163c.273.29.567.581.87.87.588.56,1.213,1.115,1.793,1.655l.026.026a20.332,20.332,0,0,1,1.5,1.512,4.639,4.639,0,0,1,.882,1.368,1.473,1.473,0,0,1-.132,1.413,3.735,3.735,0,0,1-1.454,1.464,2.861,2.861,0,0,1-1.288.169c-.783-.037-1.931-.218-3.825-.372l-.007.025a5.939,5.939,0,0,1-1.029,1.8l-.026.032c-.147.188-.318.372-.48.588q-.063.085-.123.177l-.014.02a.021.021,0,0,1,0,.006,2.556,2.556,0,0,0-.166.306,2.272,2.272,0,0,0-.09.236l-.014.043c-.023.073-.042.149-.059.23l-.008.039-.014.08a5.526,5.526,0,0,0,.2,2.225h0s.006.026.006.024l.01.04.04.147.044.151.031.1.032.106.032.1h0l.035.111.064.192.055.156.084.233.064.174.072.188.065.168.085.213.1.233.052.124.108.251.113.256c.036.083.075.167.113.25l.052.111.062.135.038.083.035.073.1.216.064.132.088.181.07.144.093.188.076.149.1.2.1.195.114.22c.035.068.072.137.108.207l.149.282.092.171.1.178.05.095.1.181.081.14.117.2.07.117.088.142.085.133.1.149.093.14.047.07.1.145.059.087.057.078.055.075.1.138.1.134.05.066.1.122c.079.1.16.2.241.3h0l.006.006.061.074.061.07.128.147.111.124.115.125c.271.3.551.575.835.839l.035.034.156.142.088.08c.024.021.049.044.074.065q.29.256.589.5l.152.122c.049.038.1.076.145.112l.166.128.138.1.153.114.19.139.189.134.171.119.083.056h0l.181.124.145.1.07.045.229.151.1.063.067.042c.3.2.606.384.911.57l.122.074.552.333h0l.541.323.465.279.21.126.242.148.152.093.152.095.154.094.158.1.21.133.092.06.044.029a.121.121,0,0,1,.019.012l.087.056.006,0,.186.122.183.122.207.142.053.037c.17.119.34.239.506.362l.187.14.133.1.114.088q.315.248.619.512l.139.122c.044.04.088.079.133.121l.1.1.114.11c.049.045.1.093.145.142s.114.114.172.172l.1.1.073.076c.058.064.117.128.175.194h0c.049.055.1.109.145.167l.134.158a11.2,11.2,0,0,1,2.019,3.686l.053.163.044.145.044.146.04.148.028.1.039.16.038.166.037.168.013.067.025.131.038.2.032.2.018.114.024.181.023.182.015.125q.018.156.032.315l.011.109.012.155.009.125.014.207.011.212.009.191.006.211,0,.213,0,.241v.482l0,.267-.008.268,0,.119c-.011.268-.026.541-.044.818a20.705,20.705,0,0,0,1.041-3.445c0-.008,0-.014,0-.021a13.605,13.605,0,0,0,.21-1.438c.36-4.074,2.4-5.168,4.193-4.688a1.179,1.179,0,0,1,.729.666,11.624,11.624,0,0,1,.644,2.793,10.183,10.183,0,0,0,.949,3.284,2.314,2.314,0,0,0,2.4,1.252,6.151,6.151,0,0,0,1.4-.247c.192-.068.311-.131.363-.231a1.15,1.15,0,0,0,.012-.608,3.2,3.2,0,0,1,.116-1.318,5.239,5.239,0,0,1,2.468-2.619c4.859-3.064,9.433-8.01,9.116-14.242a40.015,40.015,0,0,0-3.043-13.123,6.173,6.173,0,0,0-1.874-2.665,1.312,1.312,0,0,0-1.088-.213,1.773,1.773,0,0,0-.823.762c-.6.9-1.076,2.278-1.733,3.57-1.063,2.09-3.658,2.558-4.97,1.4a2.751,2.751,0,0,1-.811-2.475,11.451,11.451,0,0,1,1.172-3.816,3.232,3.232,0,0,0,.481-2.279,3.415,3.415,0,0,0-.7-1.492,5.488,5.488,0,0,0-2.578-1.425c-.137-.042-.28-.085-.43-.126h-.007a39.98,39.98,0,0,0-8.068-1.094l-.3-.018-.324-.017-.215-.011-.218-.01-.221-.011-.224-.011c-7.567-.332-11.687-1.367-13.695-1.481-.1-.006-.2-.009-.288-.011Zm48.787,24.936c-.972.875-7.417,6.681-7.629,7.106-.23.459,2.117,1.836,3.29,2.525,1.024.6,5.02,3.844,6.02,4.66.654-1.476,1.354-2.872,2.011-4.411a20.708,20.708,0,0,1,2.4-4.12A23.339,23.339,0,0,1,1762.192,2135.137Zm54.577,9.092c.572.027,2.814,1.885,3.23,2.4s.165,1.695-.928.747-1.711-.292-2.3-1.761S1814.467,2144.116,1816.769,2144.229Zm-129.945-15.839c1.839.551-1.447-.1-5.1,3.716s-3.621,6.488-7.221,8.549-7.347,7.135-9,6.153,2.33-2.475,5.4-4.725,1.585-.743,4.615-4.309,5.06-4.07,5.06-6.236,1.573-2.785-4.6-.292-4.707,2.794-10.291,5.266-9.114,4.987-7.479,2.687,2.615-1.407,7.256-3.2,3.851-2.37,4.338-2.747-.165-.986-5.014-.681-9.678,1.717-5.924.3,3.242-1.433,7.09-1.337,3.535,1.239,6.4.1,2.75-.389,3.229-1.518-5.295-1.03-6.43-2.31-.69-.861,4.076.067,3.267,1.484,6.256.666,2.235-.908,2.895.26.2.86,2.26.146S1686.327,2128.242,1686.824,2128.39Zm136.168,17.012c3.419-.263,2.7.579,3.43,1.025s-2.054.619-3.43.31-2.576-.653-2.576-1.24S1821.648,2145.5,1822.992,2145.4Zm-14.821-19.69c1.349,1.217-1.58.707-3.713,2.479s.031-.165-4.609,6.017-5.1,11.639-8.95,11.194-4.1-.762-.6-2.464,3.148-.862,5.6-4.738,2.432-4.195,4.012-6.093,3.088-5.205,4.547-6.1S1806.932,2124.593,1808.171,2125.711Zm-79.613,12.191c1.613-.412.974,1.472,1.818,2.622s.811,1.467.406,2.215a2.71,2.71,0,0,1-1.4,1.068s-1.666,1.724-1.484.654,1.518.541.957-1.292a13.2,13.2,0,0,1-.561-2.567C1727.857,2138.533,1728.054,2138.031,1728.558,2137.9Zm99.1,5.905c.172.477-1.859.82-2.59.558s-2.105-.387-2.56-.558-.087-.395,1.205-.454S1827.4,2143.1,1827.657,2143.808Zm-8.473-2.54c1.842.282,1.93.259,2.869.935s-.3,1.335-1.638.734-2.159-.062-3.089-.929S1817.366,2140.991,1819.184,2141.268Zm-93.226-3.237c1.368.327.419,3.458.209,3.882s-1.577,1.058-1.713.189-.672-1.458-.136-2.392S1725.256,2137.864,1725.959,2138.031Zm97.234,2.516c2.5.139,1.864-.472,3.442.108s2.595.9.513,1.018-3.04.974-3.956.122S1822.053,2140.485,1823.193,2140.547Zm-4.122-1.278c.894.427-.594.686-1.745.9s-3.081.9-2.886.1.675-1.05,1.5-.831S1818.144,2138.826,1819.071,2139.269Zm-94.216-5.977c.924.044,1.192.681.328,2.012a6.662,6.662,0,0,0-1.074,2.012c-.39.983-1.507,2.657-1.579,1.771s.538-.972,1.163-2.451S1723.754,2133.237,1724.855,2133.292Zm-4.266,1.455c.852-.066.073.206.532,1.617s.731,1.842-.273,2.174-2.356.44-1.9-.9S1719.637,2134.818,1720.589,2134.747Zm94.047,1.388c1.138,0,1.226.692.612,1.079s-1.146,1.165-1.281.424a7.547,7.547,0,0,1-.2-1.109C1813.746,2136.134,1814.022,2136.134,1814.636,2136.134Zm-95.518-1.554c.133-1.871-.209-4.479-1.338-5s-1.423,2.235-1.49,3.351.331,1.2,1.138,1.713-.55-.8.413-1.121.4.659.4,1.288.148,1.092-.477,1.554-1.163,1.427-.058.85S1718.986,2136.452,1719.119,2134.58Zm8.362-8.5c1.792-.219,2.692-.277,2.895,1.413s-.069,1.791,1.192,3.544,1.7,2.053.451,3.084-5.4,3.932-5.851,2.7-.053-1.6.055-3-.18-.076-1.12-1.318-1.289-2.093-2.572-2.688-2.884-.468-2.083-1.583,2.9-.463,3.454-1.562S1726.1,2126.25,1727.481,2126.083Zm-5.749,4.791c1.478-.387,1.8.505,1.987,1.7s-.765.751-.643,2.238-.57,2.741-1.033,1.7-.8-.9-.311-2.105-1.15-1.156-.484-2.15S1720.269,2131.256,1721.732,2130.874Zm32.219-62.609a12.709,12.709,0,0,0,9.215-8.036c1.806-5.054,1.032-12.7-5.639-23.852a22.118,22.118,0,0,1-3.081-10.945c-.306-4.611-.382-8.586-7.126-13.425a5.326,5.326,0,0,1-2.071-3.386c-.564-1.959-1.3-4.74-5.485-9.328a19.982,19.982,0,0,1-4.448-7.21,5.8,5.8,0,0,0-1.572-2.769c-.859-.7-2.267-1.168-4.9-1.559a19.35,19.35,0,0,1-6.932-2.206,7.226,7.226,0,0,0-2.069-.864c-1.08-.2-2.42.076-4.981,1.181-3.608,1.559-5.472,5.022-6.681,9-1.245,4.094-1.792,8.735-2.72,12.532a70.2,70.2,0,0,0-1.925,14.865.218.218,0,0,1,0,.03,47.822,47.822,0,0,0,.652,9.266l.043.227.052.27.053.267c.032.16.061.315.085.467.044.256.078.5.1.73l.012.116c.023.217.038.422.047.616s.009.355,0,.516v.032a4.748,4.748,0,0,1-.061.614v.012c-.015.082-.032.16-.052.235-.006.027-.014.053-.021.079a2.223,2.223,0,0,1-.163.406,1.665,1.665,0,0,1-.135.212l-.037.046a1.127,1.127,0,0,1-.132.137l-.055.045a.278.278,0,0,1-.041.031,1.052,1.052,0,0,1-.258.136,1.186,1.186,0,0,1-.411.069,1.5,1.5,0,0,1-.229-.019c-.035-.006-.072-.012-.108-.021l-.1-.024-.047-.014-.067-.023a2.419,2.419,0,0,1-.311-.131c-.023-.01-.047-.023-.072-.036s-.035-.018-.052-.029c-.07-.038-.142-.082-.215-.13s-.154-.1-.232-.161c-.012-.009-.024-.018-.036-.029-.031-.023-.061-.047-.092-.072l-.1-.081-.021-.018c-.064-.055-.129-.111-.2-.172s-.143-.133-.218-.206l-.1-.1-.087-.09c-.067-.069-.135-.142-.206-.218-.183-.2-.372-.42-.565-.66-.111-.139-.226-.285-.34-.436-.462-.609-.949-1.327-1.454-2.149l-.058-.1q-.356-.585-.725-1.245c-.218-.393-.44-.8-.663-1.234l-.1-.192c-.113-.219-.225-.443-.34-.672l-.165-.337q-.2-.412-.4-.841-.162-.347-.325-.706c-.058-.129-.117-.26-.175-.393-.134-.3-.267-.6-.4-.917-.119-.279-.238-.561-.356-.85l-.07-.168-.078-.178-.078-.171-.079-.169-.095-.193-.029-.06c-.052-.1-.107-.207-.16-.308l-.07-.13-.07-.126-.07-.123c-2.763-4.8-8.22-7.631-14.035-8.338-.544-.067-1.093-.115-1.641-.143l-.21-.01-.154-.006a23.086,23.086,0,0,0-6.582.69l-.162.043-.186.049a17.565,17.565,0,0,0-8.626,5.2.071.071,0,0,1-.01.01,15.149,15.149,0,0,0-1.473,1.993c-7.385,11.937-7.142,9.954-8.344,16.223s-3.536,12.206-1.9,21.147c1.63,8.923,2.75,9.35,6.783,15.786,1.309,2.089,2.61,3.891,3.758,5.4l.026.03c.351.46.688.893,1,1.3a.464.464,0,0,1,.028.038c1.2,1.532,2.135,2.659,2.569,3.369a2.3,2.3,0,0,1,.309.683.7.7,0,0,1-.074.526.805.805,0,0,1-.383.3,2.891,2.891,0,0,1-.716.167c-.96.128-2.7.14-4.954.361l-.037,0a39.608,39.608,0,0,0-5.656.956l-.256.063-.182.047-.233.063-.174.047-.046.012c-2.052.593-5.239,2.458-8.655,5a.266.266,0,0,1-.055.035,71.43,71.43,0,0,0-7.984,6.953.073.073,0,0,1-.01.011c-.285.291-.567.582-.844.876l-.034.035c-.208.223-.416.443-.618.667a42.557,42.557,0,0,0-3.527,4.364l-.127.185-.093.136-.046.067a24.3,24.3,0,0,0-1.452,2.441l-.093.184-.065.13c-.047.1-.095.195-.139.292a9.978,9.978,0,0,0-1.094,4.3l.006.167,0,.069c.424,7.2,1.486,13.44,10.433,20.533l.1.084.006-.02a.042.042,0,0,1,0-.006l.008-.03.032-.108.008-.026s0-.006,0,0l.006-.023.035-.119.008-.025s0,0,0,0l0-.015.008-.021.041-.14.07-.224.09-.287.078-.239.035-.1.094-.284.073-.208.073-.207.033-.093.079-.218.027-.073s.044-.114.043-.114l.008-.02.1-.256.059-.151.063-.16.091-.225.067-.164.087-.206.087-.2.12-.271.105-.234.125-.27.093-.2.047-.1.09-.185.117-.236.082-.162c.08-.155.16-.311.244-.466l.1-.2.11-.2.09-.16h0l0,0s0,0,0,0l0-.006c.061-.108.122-.215.185-.321l.134-.227.116-.192.117-.192.1-.155c.061-.1.124-.2.188-.3l.11-.169c.081-.122.163-.244.246-.365l.008-.012q.354-.516.736-1.022l.163-.214.026-.035q.535-.688,1.124-1.35l.053-.059.174-.19.143-.154.162-.171.163-.17.165-.168.166-.167c.017-.017.033-.032.05-.048,5.987-5.915,13.344-6.757,20.037-5.934,6.592.811,12.521,3.244,15.775,3.922a6.454,6.454,0,0,0,1.32.137h.035a7.554,7.554,0,0,0,6.133-3.478c1.473-2.256,1.589-5.142-.917-7.022-5.452-4.09-20.027-18.676-22.345-36.392-2.328-17.8,10.91-24.542,17.073-29.061,2.485-1.822,6.072-2.73,10.119-3.131,5.965-.588,12.942-.087,18.787.076,9.784.272,11.616,1.341,28.513,12.65l.183.124.181.122.175.119.242.165.268.184.174.119.169.117.239.167.256.178.168.119.218.155.259.185.164.119.2.146.26.189.162.119.16.118.3.227.14.1.155.118.18.137.265.2.137.106.151.116.256.2.3.238.251.2.291.234.245.2.262.216.154.128.233.195.251.215.151.129.221.19.262.23.218.194.235.212.137.123.209.19.239.224.25.235.188.178.108.105.11.107.206.2.1.1.107.105.1.1.192.195.1.1.1.1.1.1.282.3h0A29.98,29.98,0,0,1,1753.95,2068.265Zm65.022,63.246c.91.4.523.6-.688.6s-2.731-.145-2.731.311-.429.21,1.151.541,2.75.05,3.1.647-1.367,1.1-2.4.713-2.764-.151-3.354-1.069-1.714-1.05-.746-1.333a23.637,23.637,0,0,1,2.944-.483C1817.4,2131.245,1817.79,2130.987,1818.972,2131.51Zm-60.059-1.821a76.026,76.026,0,0,1-7.562-22.259,16.02,16.02,0,0,1-3.972,4.234,6.041,6.041,0,0,1-3.375,1.167c-1.689,0-3.27.006-4.749.021a4.61,4.61,0,0,1,1.361,1.024,4.188,4.188,0,0,1,.872,1.814,3.326,3.326,0,0,1-.282,2.289,12.6,12.6,0,0,0-1.345,4.114,1.966,1.966,0,0,0,.538,1.772,1.909,1.909,0,0,0,1.445.413,2.856,2.856,0,0,0,2.254-1.572c.673-1.323,1.17-2.735,1.781-3.653a2.564,2.564,0,0,1,1.237-1.082,2.071,2.071,0,0,1,1.761.277,6.9,6.9,0,0,1,2.209,3.03,40.829,40.829,0,0,1,3.081,12.817,9.214,9.214,0,0,0,1.374-1.092C1756.394,2132.2,1758.416,2130.186,1758.913,2129.689Zm-44.318-.466c.66.747.678.876.66,2.055s.94,2.729-.515,2.08-1.636-.349-1.335-1.665.684-.773.684-1.488Zm4.85.161c1.047-.46,1.286.438,1.145,1.2s-.017,1.889-.744,1.118S1718.443,2129.826,1719.445,2129.384Zm13.225-6.417c1.02-.383,1.3,2.423,1.02,4.539s-.306,4.1-.739,3.111-1.147-.765-1.173-1.453.026-.409.332-1.658-.306-.843,0-2.168S1732.139,2122.837,1732.67,2122.967Zm84.1,5.76c1.227.367,1.664.6,1.934,1.127s-1.233.5-1.934.424-.862-.589-1.595-.162-1.061.813-.9.095A2.94,2.94,0,0,1,1816.769,2128.727Zm-93.329-10.681c.628-.62,1.7,1.141,2.42,2.209s1.74,2.217,1.777,3.422-.347,2.113-.827,1.2a12.663,12.663,0,0,1-1.152-2.265,9.589,9.589,0,0,0-1.338-2.86C1723.719,2119,1723.16,2118.321,1723.44,2118.045Zm-5.157-.859c.417-.314,1.087.7,1.9,1.469s2.583,2.552,3.533,3.529,2.394,2.756,1.764,2.81-.341-.128-1.374-1.127a14.44,14.44,0,0,1-2.194-2.112c-1.066-1.329-2.276-2.354-2.47-2.835S1718.02,2117.382,1718.282,2117.186Zm11.511,1.886c.046-.059.306-.042,0,0a.58.58,0,0,0-.018.464l-1.134,1.014c1.15,1.633,1.906,4.229,1.071,3.2s-1.7-3.074-1.071-3.2l-.014-.02C1727.871,2119.433,1729.14,2119.161,1729.794,2119.072Zm-.018.464s.323-.556.447-.4c.3.382,1.646,2.23,1.38,2.7s.271,2.714-.617.652A25.671,25.671,0,0,1,1729.775,2119.537Zm5.848.555c.466-.307.6,1.787.169,2.092s-.477.093-.477-.666S1735.34,2120.276,1735.623,2120.092Zm-19.142-2.993a34.183,34.183,0,0,0-3.128,3.968c1.4.134,2.317.268,2.974.3a2.132,2.132,0,0,0,.928-.1c.384-.167.655-.532,1.1-1.179.2-.285.095-.619-.12-1a8.473,8.473,0,0,0-1.42-1.664C1716.708,2117.315,1716.6,2117.207,1716.481,2117.1Zm13.616-.821c.442.453.656,1.481-.28.821s-.433-.479-1.307-1.007a12.486,12.486,0,0,0-2.853-1.11c-.8-.229,1.431.533,2.418,1.3a16.24,16.24,0,0,1,2.147,2c.263.322.224.642-.463.322a4.869,4.869,0,0,1-1.546-1.082c-.957-.8-1.388-1.094-2-1.606a5.764,5.764,0,0,0-2.1-.928c-.416-.093.72.372.993.592s.29.62-.247.221-2.465-1.01-2.941-1.377l1.053.813c.434.334.8.678.454.678s-.294-.164-1.068-.514a7.477,7.477,0,0,1-1.354-.8s-.064.108.733.8,3.543,1.9,3.989,2.374a5.254,5.254,0,0,1,1.028,1.65c-.053.117-.012.257-1.153-.594s-1.03-1.23-2.194-1.64-1.525-1.461-1.964-1.277.257.9,1.173,2.063,1.291,1.436,1.291,2.11.62,1.85-.968.343-2.67-2.679-3.489-3.382a15.8,15.8,0,0,1-2.4-2.062c-.759-.932-1.21-.539-1.26-1.382s-1.08-1.287,1.789-.838a39.769,39.769,0,0,1,4.428,1.059c1.253.229,4.138,1.041,5.173,1.225A4.773,4.773,0,0,1,1730.1,2116.278Zm4.052.71c.728,0,.5.506.5,1.058s.09,1.562-.48,1.711-.539.284-1.345-.7a11.153,11.153,0,0,1-1.259-1.539c-.4-.67-1.865-2.018-.933-1.721s1.224.827,2.014,1.721.419,1.705.96,1.082.14-.609.14-1.082S1734,2116.988,1734.148,2116.988Zm1.213.708c1.117,0,1.292.71.861,1.05s-.929,1.269-1.093.673S1734.75,2117.7,1735.361,2117.7Zm-11.46-1.787c.766,0,1.775.882,2.266,1.079a5.209,5.209,0,0,1,1.69,1.4c.411.535.581,1.065-.527.213s-2.325-1.679-2.735-2.022S1723.693,2115.909,1723.9,2115.909Zm8.748.183c.69,0,.987,1.452.494,1.069s-.494-.1-.494-.586S1731.557,2116.092,1732.649,2116.092Zm77.215-5.148c.739,2.022,3.363,2.8-1.693.093s-3.881-2.48-6.68-3.606-4.166-2.135-7.379-2.077-5,2.177-8.417,1.417-5.682-.45-3.713-1.085,2.638.309,5.068-.04,3.547-.854,5.959-1.291,2.566-.57,4.436.242-2.664-2.1-5.976-3.146-3.94-.715-7.126-2.257-6.6-1.592-4.118-2.2,3.387.941,5.471,1.7a28.443,28.443,0,0,0,5.2,1.819,20.387,20.387,0,0,1,6.11,2.546c2.305,1.2,1.386,1.018,5.147,2.953S1809.256,2109.281,1809.864,2110.943Zm36.573-7.3c3.145-.923-.506,4.751-5.229,5.359s-8.245,3.1-8.245,1.272.667-1.822,2.839-1.822.108.606,4.1-.637,4.043,1.53,4.688-1.536S1843.406,2104.53,1846.437,2103.642Zm-145.082,6.221c4.95-2.4,5.76-8.548,6.1-13.54s.831-.081.729-7.536-.134-11.923,2.435-15.13,7-8.651,2.433-5.527-6.117,6.99-6.117,12.654a99.663,99.663,0,0,1-1,14.556c-.608,4.161-.524,7.58-2.854,10S1696.026,2112.442,1701.355,2109.863Zm-18.26-35.8c3.073,1.859,3.52,5.659,4.2,11.2s-.684,8.373,2.446,12.945,4.469,6.241,3.946,7.207-1.694.37-3.946-4.262-3.137-3.41-3.526-7.513a75.1,75.1,0,0,1-.48-9.353c0-4.106-1.522-4.728-3.017-8.306S1681.713,2073.226,1683.1,2074.063Zm126.339,31.291a9.624,9.624,0,0,0-1.772-1.788c-3.017-2.558-3.031-2.176-6.171-4.824s-1.274-3.043-4.483-3.78-1.434-1.211.436-.284,1.5,1.28,4.047,3.028,2.678,2.3,4.425,3.366,2.109,1.342.829-1.357-1.748-2.572-4.59-5.2-3.8-4.289-3.8-6.429-1.5-4.533,0-3.335v.468a16.482,16.482,0,0,0,3.973,6.974c1.513,1.757,2.965,5.01,3.591,2.924s-.567-4.272.59-5.564.868,1.268,1.156,3.868a30.715,30.715,0,0,1,.509,5.658c0,3.006,1.242,5.531,1.263,6.279.41.626-.174.456-.024.155A.309.309,0,0,0,1809.434,2105.353Zm-72.542-32.007c3.209,1.283,3.294,6.378-3.451,9.852s-6.405-.265-10.766,5.449-7.282,9.619-8.858,11.875-3.165,2.706-1.094-1.26.006-.971,3.043-5.352-.07-3.616,5.671-7.7,1.638-2.935,6.905-4.339,6.66.078,6.308-3.864S1736.033,2073,1736.892,2073.346Zm-94.12,20.213c-2.232-2.063-3.317-4.967-4.1-6.293a2.724,2.724,0,0,0-.26-.381.828.828,0,0,0-.1-.091,2.1,2.1,0,0,0-.509,1.853c.1,1.472.672,3.524.995,6.274a3.286,3.286,0,0,1-.856,2.245,14.86,14.86,0,0,1-2.95,2.733l.28.19A72.2,72.2,0,0,1,1642.772,2093.56Zm-12.429,1.975c.271.122-2.141,2.378-3.189,1.681s.538-.354,1.467-.9A4.938,4.938,0,0,1,1630.343,2095.534Zm-2.141-2.979c.66.052.626,2.128-.622,2.754s-.715,1.372-1.733,1.489-2.689.08-2.677-1.083,1.019-2,1.659-2.743.887-1.187,1.149-.966a1.009,1.009,0,0,1,0,1.28c-.34.483-1.068,1.12-1,1.429s.756,1.483,1.5.308S1627.7,2092.516,1628.2,2092.556Zm-7.963.036a.448.448,0,0,0,.049-.036c1.021-.787,3.137-3.374,4.24-3.447.446-.029.893.522.446,1.449s-1.239.9-1.382,1.449.348.326.348.8a6.2,6.2,0,0,1-2.1,2.906,3.451,3.451,0,0,1-1.6.029Zm0-3.215c1.76-1.807,3.77-4.547,4.736-4.626.91-.075.16,1.938-1.034,2.835a19.578,19.578,0,0,1-2.662,2c-.3.151-.684.372-1.039.56Zm41.575-6.172c-.254.344-.684.916-1.417,1.86a9.036,9.036,0,0,0-.925,1.778c1.438-.122,2.637-.167,3.515-.229a8.711,8.711,0,0,0,1.029-.116,1.555,1.555,0,0,0,.178-.052c-.014-.035-.03-.076-.047-.111a6.554,6.554,0,0,0-.561-.859C1663.153,2084.885,1662.544,2084.126,1661.815,2083.2Zm-41.575-13.139a3.324,3.324,0,0,1,1.53.055c1.281.634,1.612.42,2.459,2.857s1.472,3.319.542,4.172-1.537,1.975-3.535,2.645a9.541,9.541,0,0,0-1,.407Zm5.118-4.846c.369.505-.287,1.039-.852.172s-.577-.457-1.335-.661-.708-.634.03-.634,1.027-.123,1.327.43S1624.866,2064.545,1625.358,2065.219Zm1.117-4.826c1.1.05,2.708,2.066,2.579,3.264s-.228,2.729-.852,1.734a17.333,17.333,0,0,1-1.01-2.269c-.357-.688,0-.663-.357-1.2S1625.37,2060.343,1626.475,2060.393Zm4.1,2.88c.693.143,1.452,1.805.849,2.118s-.946.513-1.289-.312-.294-.565-.148-1.186S1630.025,2063.159,1630.58,2063.273Zm1.583.143c.946-.237,1.681,1.117,1.109,1.663s-.57.745-.963,0S1631.591,2063.558,1632.163,2063.416Zm6.913-5.218c.7-.957,1.815-3.183,3.456-8.283,3.226-10.023,5.763-15.9,7.145-22.809a14.5,14.5,0,0,0-1.445-9.79,6.406,6.406,0,0,1-.754-2.5.569.569,0,0,0-.081-.354.548.548,0,0,0-.294-.166,4.116,4.116,0,0,0-1.045-.094,21.751,21.751,0,0,1-8.408-.96c-5.51-1.966-6.13-1.666-10.826-1.158a33.311,33.311,0,0,1,3.18,4.972l.1.2c.015.029.029.058.043.087,3.969,8.073,5.194,20.524,1.364,29.692l-.09.21-.119.263-.139.29-.128.256-.108.208-.111.207-.12.215-.124.216-.162.272-.152.249-.131.206-.031.05a33.908,33.908,0,0,1-3.226,4.162c.011.012.02.026.029.038a15.787,15.787,0,0,1,1.845,3.911c.172.473.341.943.515,1.394.109.284.221.56.337.823a9.8,9.8,0,0,0,.5,1.006l.012.021c.074.125.151.242.23.355l.09.125c.038.05.078.1.118.145a2.022,2.022,0,0,0,.909.665l.018.006c.038.012.076.021.116.031l.105-.146.072-.105.1-.155.058-.1.012-.02a18.2,18.2,0,0,1,1.367-2.348l.042-.058c.035-.045.07-.093.107-.139l.093-.117.078-.1.043-.052.078-.09.114-.124.137-.134.047-.042.106-.093.046-.04a4.156,4.156,0,0,1,4.7-.407C1638.957,2058.121,1639.016,2058.16,1639.076,2058.2Zm-12.737,1.07c.355.14.051.392-1.175.2s-2.342.215-1.571-.251,1.408-.663,1.751-.466A5.957,5.957,0,0,0,1626.339,2059.268Zm-2.072-1.739c.239.126-1.07.727-1.669.972s-1.959,1.214-2.135.963.053-.037,1.03-.718a16.735,16.735,0,0,1,1.677-.914C1623.593,2057.529,1624.005,2057.389,1624.267,2057.529Zm-1.065-.514c.413-.017.419.376-.391.654s-1.132.715-1.955.832.225-.59.984-.972A3.178,3.178,0,0,1,1623.2,2057.015Zm3.634.131c.451.1.865.571-.142.686s-1.228.309-2.165.408-.875-.033-.031-.294.859-.035,1.35-.417S1626.479,2057.064,1626.836,2057.146Zm-.988-2.252c.565.131-.109.479-.49.777a7.745,7.745,0,0,1-1.765.708l-.995.346c-.6.21-.51-.325.6-.689s.913.037,1.629-.366S1625.358,2054.78,1625.849,2054.894Zm108.323-35.421c4.817,0-2.706,4.2-10.062,8.759s-10,11.874-9.869,6.536,3.142-3.824,9.944-8.476S1731.976,2019.473,1734.171,2019.473Zm-30.775,12.281a48.35,48.35,0,0,1-.677-9.351c-4.763-7.531-13.981-20.285-24.8-25.766-9.455-4.789-17.553-6.534-22.355-5.535a6.034,6.034,0,0,0-3.445,1.778,4.24,4.24,0,0,0-.907,3.349c.785,7.451,2.629,9.544,6.035,16.355a57.078,57.078,0,0,0,4.754,6.888,17.305,17.305,0,0,1,4.73-3.54l.222-.113.109-.055a22.926,22.926,0,0,1,11.559-2.144c.415.028.827.067,1.24.116l.315.039.132.017c5.957.817,11.484,3.808,14.306,8.749l.091.165.064.118c.076.14.151.282.222.425l.107.221.087.181.094.209.061.14.059.138c.009.024.02.049.029.073,2.556,6.2,5.092,10.015,6.823,11.341a2.444,2.444,0,0,0,.718.41.766.766,0,0,0,.241.046h.012a.363.363,0,0,0,.13-.026.476.476,0,0,0,.234-.254,2.167,2.167,0,0,0,.175-.777,9.773,9.773,0,0,0-.248-2.57l-.053-.275-.058-.3Z" transform="translate(-1620.24 -1983.804)" fill="#003676" fill-rule="evenodd"/>
    </g>
  </g>
</svg>
