<svg xmlns="http://www.w3.org/2000/svg" id="prefix__outline-arrow_drop_down-24px" width="24" height="24" viewBox="0 0 24 24">
    <path id="prefix__Path_3448" d="M0 0h24v24H0z" data-name="Path 3448" style="fill:none"/>
    <path id="prefix__Path_3449" d="M7 10l5 5 5-5z" data-name="Path 3449" style="fill:#a1722a"/>
</svg>
