<svg xmlns="http://www.w3.org/2000/svg" width="40" height="40" viewBox="0 0 40 40">
    <defs>
        <style>
            .prefix__cls-2{fill:#a1722a}
        </style>
    </defs>
    <g id="prefix__Group_3108" data-name="Group 3108" transform="translate(-80 -644)">
        <path id="prefix__Path_3452" d="M0 0h40v40H0z" data-name="Path 3452" transform="translate(80 644)" style="opacity:0;fill:#a1722a"/>
        <path id="prefix__Rectangle_2212" d="M0 0H20V1H0z" class="prefix__cls-2" data-name="Rectangle 2212" transform="translate(90 657)"/>
        <path id="prefix__Rectangle_2216" d="M0 0H9.15V1H0z" class="prefix__cls-2" data-name="Rectangle 2216" transform="rotate(135 -83.774 352.823)"/>
        <path id="prefix__Rectangle_2217" d="M0 0H9V1H0z" class="prefix__cls-2" data-name="Rectangle 2217" transform="rotate(45 -750.579 444.178)"/>
        <path id="prefix__Rectangle_2213" d="M0 0H20V1H0z" class="prefix__cls-2" data-name="Rectangle 2213" transform="translate(90 672)"/>
        <path id="prefix__Rectangle_2214" d="M0 0H15V1H0z" class="prefix__cls-2" data-name="Rectangle 2214" transform="rotate(-90 381 291)"/>
        <path id="prefix__Rectangle_2215" d="M0 0H15V1H0z" class="prefix__cls-2" data-name="Rectangle 2215" transform="rotate(-90 390.5 281.5)"/>
    </g>
</svg>
