<svg xmlns="http://www.w3.org/2000/svg" id="ws-img-icon-instagram" width="24" height="24" viewBox="0 0 24 24">
    <defs>
        <style>
            .cls-1,.cls-2{fill:#a1722a}.cls-1{opacity:0}
        </style>
    </defs>
    <path id="Rectangle_1806" d="M0 0h24v24H0z" class="cls-1" data-name="Rectangle 1806"/>
    <path id="Shape" d="M6 12c-1.627 0-1.839-.007-2.474-.036a4.454 4.454 0 0 1-1.457-.279 2.935 2.935 0 0 1-1.062-.693 2.938 2.938 0 0 1-.692-1.063 4.449 4.449 0 0 1-.279-1.455C.007 7.839 0 7.627 0 6s.007-1.832.036-2.474A4.415 4.415 0 0 1 .315 2.07a2.948 2.948 0 0 1 .693-1.063A2.939 2.939 0 0 1 2.07.315 4.457 4.457 0 0 1 3.526.036C4.161.007 4.373 0 6 0s1.838.007 2.472.036A4.467 4.467 0 0 1 9.93.315a2.935 2.935 0 0 1 1.062.692 2.941 2.941 0 0 1 .693 1.063 4.482 4.482 0 0 1 .279 1.456C11.992 4.15 12 4.338 12 6s-.008 1.85-.036 2.474a4.485 4.485 0 0 1-.279 1.456 3.075 3.075 0 0 1-1.755 1.755 4.455 4.455 0 0 1-1.457.279C7.839 11.993 7.627 12 6 12zM5.461 1.079c-1.108 0-1.32.009-1.885.034a3.329 3.329 0 0 0-1.114.207 1.859 1.859 0 0 0-.69.449 1.848 1.848 0 0 0-.449.69 3.335 3.335 0 0 0-.207 1.114c-.028.63-.034.82-.034 2.424s.006 1.794.034 2.425a3.308 3.308 0 0 0 .207 1.114 1.862 1.862 0 0 0 .449.69 1.862 1.862 0 0 0 .69.449 3.353 3.353 0 0 0 1.114.207c.635.029.825.035 2.424.035s1.79-.006 2.425-.035a3.292 3.292 0 0 0 1.114-.207 1.987 1.987 0 0 0 1.138-1.138 3.322 3.322 0 0 0 .207-1.114c.029-.632.035-.822.035-2.424s-.006-1.791-.035-2.424a3.308 3.308 0 0 0-.207-1.114 1.864 1.864 0 0 0-.449-.69 1.856 1.856 0 0 0-.69-.449 3.329 3.329 0 0 0-1.114-.207c-.63-.028-.82-.034-2.425-.034h-.537zm.539 8A3.081 3.081 0 1 1 9.081 6 3.084 3.084 0 0 1 6 9.081zM6 4a2 2 0 1 0 2 2 2 2 0 0 0-2-2zm3.2-.483a.72.72 0 1 1 .72-.72.721.721 0 0 1-.72.72z" class="cls-2" transform="translate(6 5.8)"/>
</svg>
